{
    "resourceType": "DocumentReference",
    "identifier": [
        {
            "system": "useFor",
            "value": "TCU-H707"
        },
        {
            "system": "slotId",
            "value": "5250"
        }
    ],
    "status": "current",
    "docStatus": "final",
    "description": "16",
    "content": [

    ]
}