{
    "resourceType": "Location",
    "id": "oral-clinic-jonah",
    "meta": {
        "versionId": "47",
        "lastUpdated": "2020-02-11T10:07:07.624+00:00"
    },
    "text": {
        "status": "generated",
        "div": "<div xmlns=\"http://www.w3.org/1999/xhtml\">Oral Clinic Under Hospital Of Jonah</div>"
    },
    "status": "active",
    "name": "Oral Clinic Of Jonah",
    "alias": [
        "Oral Clinic Of Jonah",
        " OCOJ"
    ],
    "description": "Oral Clinic Under Hospital Of Jonah",
    "mode": "instance",
    "type": [{
        "coding": [{
            "system": "http://terminology.hl7.org/CodeSystem/v3-RoleCode",
            "code": "OMS",
            "display": "Oral and maxillofacial surgery clinic"
        }]
    }],
    "telecom": [{
        "system": "phone",
        "value": "12345",
        "use": "work"
    }],
    "address": {
        "use": "work",
        "type": "both",
        "line": [
            "707號,中央路三段,花蓮市"
        ],
        "city": "HUA",
        "postalCode": "97004"
    },
    "physicalType": {
        "coding": [{
            "system": "http://terminology.hl7.org/CodeSystem/location-physical-type",
            "code": "bu",
            "display": "Building"
        }]
    },
    "position": {
        "longitude": 121.59238172,
        "latitude": 23.9955002,
        "altitude": 29
    },
    "managingOrganization": {
        "reference": "Organization/jonah"
    }
}